개인정보와 익명화
…
4.1 데이터 마스킹(Masking)

파이썬 faker 팩키지를 통해 생성한 데이터에 주민번호를 만들어내고 주민번호 전체를 마스킹하거나 출생연도와 성별만 주민번호를 통해 저장시키고 나머지 모든 주민번호 관련 숫자를 마스킹 처리한다.

library(tidyverse)

faked_tbl <- read_csv("data/faked.csv")

faked_tbl %>% 
  mutate(masked_ssn = str_replace_all(ssn, "[0-9]", "*")) %>% 
  mutate(masked_dob_ssn  = glue::glue("{str_sub(ssn, 1,2)}****-{str_sub(ssn, 8,8)}******")) %>% 
  select(name, ssn, masked_ssn, masked_dob_ssn)

# A tibble: 100 x 4
   name   ssn            masked_ssn     masked_dob_ssn
   <chr>  <chr>          <chr>          <glue>        
 1 이경자 510509-1814474 ******-******* 51****-1******
 2 이은경 910719-1056112 ******-******* 91****-1******
 3 김성진 750318-2013376 ******-******* 75****-2******
 4 박승민 910028-1278202 ******-******* 91****-1******
 5 박상철 390906-1877754 ******-******* 39****-1******
 6 류지우 530709-2973749 ******-******* 53****-2******
 7 문현숙 050626-1089690 ******-******* 05****-1******
 8 최정숙 970718-1829726 ******-******* 97****-1******
 9 이지우 180025-2247415 ******-******* 18****-2******
10 안상훈 740900-1475456 ******-******* 74****-1******
# … with 90 more rows
…
[100 rows x 3 columns]

4.3 총계 혹은 범주화

데이터를 익명화하기 위해 총계(aggregation) 혹은 범주화 기법을 사용해서 비식별화한다.

faked_tbl %>% 
  mutate(salary_agg = ifelse(salary >= quantile(salary, .7), "많음", "적음")) %>% 
  select(name, salary, salary_agg)

# A tibble: 100 x 3
   name   salary salary_agg
   <chr>   <dbl> <chr>     
 1 이경자   1.09 적음      
 2 이은경   9.58 적음      
 3 김성진  22.7  적음      
 4 박승민  12.3  적음      
 5 박상철  90.5  많음      
 6 류지우  24.4  적음      
 7 문현숙   9.12 적음      
 8 최정숙  12.9  적음      
 9 이지우   4.72 적음      
10 안상훈  29.9  많음      
# … with 90 more rows
…
